spEcula | Spatial Prediction Methods In R • spEcula
…
zn$Zn = log(zn$Zn)
tictoc::tic()
g1 = gos(Zn ~ Slope + Water + NDVI  + SOC + pH + Road + Mine,
         data = zn, newdata = grid, kappa = 0.08,cores = 6)
tictoc::toc()
## 6.6 sec elapsed

g1$pred = exp(g1$pred)
grid$pred = g1$pred
grid$uc99 = g1$`uncertainty99`
g1
## # A tibble: 13,132 × 7
##     pred uncertainty90 uncertainty95 uncertainty99 uncertainty99.5
##    <dbl>         <dbl>         <dbl>         <dbl>           <dbl>
##  1  21.8        0.0818        0.0523        0.0287         0.0243 
##  2  22.5        0.0529        0.0356        0.0102         0.00954
##  3  22.9        0.0693        0.0429        0.0224         0.0148 
##  4  22.6        0.0665        0.0572        0.0140         0.00799
##  5  21.9        0.0736        0.0460        0.0181         0.0139 
##  6  21.5        0.0728        0.0480        0.0200         0.0169 
##  7  23.2        0.0453        0.0345        0.0185         0.0178 
##  8  24.8        0.0488        0.0434        0.0227         0.0118 
##  9  25.0        0.0435        0.0432        0.0186         0.0103 
## 10  24.5        0.0217        0.0217        0.0182         0.0141 
## # ℹ 13,122 more rows
## # ℹ 2 more variables: uncertainty99.9 <dbl>, uncertainty100 <dbl>
…
