Geographic detectors(geodetector) Model in R package spEcula • spEcula
…
g
## $x
##  [1] "aspect" "elev"   "ntl"    "pop"    "premax" "premin" "presum" "slope"  "tmpavg" "tmpmax"
## [11] "tmpmin"
## 
## $k
##  [1] 15 15 14 15 15 15 15 15 15 15 15
## 
## $method
##  [1] "equal"    "quantile" "fisher"   "quantile" "fisher"   "fisher"   "fisher"   "fisher"  
##  [9] "quantile" "quantile" "fisher"  
## 
## $disv
## # A tibble: 136,243 × 11
##    aspect  elev   ntl   pop premax premin presum slope tmpavg tmpmax tmpmin
##     <int> <int> <int> <int>  <int>  <int>  <int> <int>  <int>  <int>  <int>
##  1      8    12     3     1      7      1      1     4      4      8      2
##  2      8    12     2     1      7      1      1     6      4      8      2
##  3      6    12     2     1      6      1      1     7      4      9      2
##  4      5    12     2     1      6      1      1     5      5     10      2
##  5      5    13     3     4      7      2      1     3      4      8      2
##  6      5    12     3     3      7      1      1     5      4      8      2
##  7      6    12     2     1      7      1      1     7      4      9      2
##  8      7    12     2     1      6      1      1     6      5     10      2
##  9      8    12     2     1      6      1      1     4      5     10      2
## 10      7    12     3     1      6      1      1     5      5     10      2
## # ℹ 136,233 more rows

new.fvc = g$disv
new.fvc
## # A tibble: 136,243 × 11
##    aspect  elev   ntl   pop premax premin presum slope tmpavg tmpmax tmpmin
##     <int> <int> <int> <int>  <int>  <int>  <int> <int>  <int>  <int>  <int>
##  1      8    12     3     1      7      1      1     4      4      8      2
##  2      8    12     2     1      7      1      1     6      4      8      2
##  3      6    12     2     1      6      1      1     7      4      9      2
##  4      5    12     2     1      6      1      1     5      5     10      2
##  5      5    13     3     4      7      2      1     3      4      8      2
##  6      5    12     3     3      7      1      1     5      4      8      2
##  7      6    12     2     1      7      1      1     7      4      9      2
##  8      7    12     2     1      6      1      1     6      5     10      2
##  9      8    12     2     1      6      1      1     4      5     10      2
## 10      7    12     3     1      6      1      1     5      5     10      2
## # ℹ 136,233 more rows

The new.fvc is the discrete result of the optimal
discretization parameter based on the Q statistic of the geographic
detector,we can combine it with fvc and lulc
col in fvc tibble now.

new.fvc = bind_cols(select(fvc,fvc,lulc),new.fvc)
new.fvc
## # A tibble: 136,243 × 13
##      fvc  lulc aspect  elev   ntl   pop premax premin presum slope tmpavg tmpmax tmpmin
##    <dbl> <dbl>  <int> <int> <int> <int>  <int>  <int>  <int> <int>  <int>  <int>  <int>
##  1 0.198    10      8    12     3     1      7      1      1     4      4      8      2
##  2 0.193    10      8    12     2     1      7      1      1     6      4      8      2
##  3 0.192    10      6    12     2     1      6      1      1     7      4      9      2
##  4 0.189    10      5    12     2     1      6      1      1     5      5     10      2
##  5 0.208    10      5    13     3     4      7      2      1     3      4      8      2
##  6 0.196    10      5    12     3     3      7      1      1     5      4      8      2
##  7 0.191    10      6    12     2     1      7      1      1     7      4      9      2
##  8 0.185    10      7    12     2     1      6      1      1     6      5     10      2
##  9 0.174    10      8    12     2     1      6      1      1     4      5     10      2
## 10 0.166    10      7    12     3     1      6      1      1     5      5     10      2
## # ℹ 136,233 more rows
…
